<?xml version="1.0" encoding="UTF-8"?>
<svg width="18px" height="18px" viewBox="0 0 18 18" version="1.1" xmlns="http://www.w3.org/2000/svg" xmlns:xlink="http://www.w3.org/1999/xlink">
    <!-- Generator: Sketch 45.2 (43514) - http://www.bohemiancoding.com/sketch -->
    <title>plus</title>
    <desc>Created with Sketch.</desc>
    <defs></defs>
    <g id="Style" stroke="none" stroke-width="1" fill="none" fill-rule="evenodd">
        <g id="FaQs" transform="translate(-1226.000000, -390.000000)" fill="#EC7234">
            <g id="plus" transform="translate(1226.000000, 390.000000)">
                <rect id="Rectangle-13" x="0" y="8.1" width="17.1" height="1.8" rx="0.9"></rect>
                <rect id="Rectangle-13" transform="translate(8.550000, 9.000000) rotate(-270.000000) translate(-8.550000, -9.000000) " x="0" y="8.1" width="17.1" height="1.8" rx="0.9"></rect>
            </g>
        </g>
    </g>
</svg>